%YAML 1.1
%TAG !u! tag:unity3d.com,2011:
--- !u!1045 &1
EditorBuildSettings:
  m_ObjectHideFlags: 0
  serializedVersion: 2
  m_Scenes:
  - enabled: 1
    path: Assets/Scenes/Ze Game cloud city edition.unity
    guid: f684b113cd6f3914aa971cf9ad3ea9fa
  m_configObjects: {}
